[
    {
        "mfg": "Acer",
        "model": "Chromebook Tab 10",
        "serie": "D651N-K9WT",
        "cover_image": "https://static.acer.com/up/Resource/Acer/Laptops/Chromebook_Tab_10/Photogallery/20180328/Acer-Chromebook-Tab-10-D651N-photogallery-01.png",
        "desc_link": "https://www.acer.com/ac/en/US/content/series/acerchromebooktab10",
        "specs_link": "https://www.acer.com/ac/en/US/content/series/acerchromebooktab10",
        "play_support": "Stable",
        "summary": "10'' Touchscreen, 4 GB RAM, 32 GB, Wacom Stylus Pen",
        "display": "9.7\", QXGA (2048 x 1536) resolution, IPS technology",
        "stylus": "Wacom® EMR Pen",
        "ram": "LPDDR3\n4 GB (standard)",
        "cpu": "Rockchip RK3399, 2 GHz",
        "storage": "32 GB",
        "dimensions": "6.78\" x 9.38\" x 0.39\"",
        "weight": "0.5 kg"
    },
    {
        "mfg": "Acer",
        "model": "Chromebook R 13",
        "serie": "CB5-312T",
        "cover_image": "https://static.acer.com/up/Resource/Acer/Laptops/Chromebook_R13/Images/20160824/Chromebook-R-13_main.png",
        "desc_link": "https://www.acer.com/ac/en/US/content/series/acerchromebookr13",
        "specs_link": "https://www.acer.com/ac/en/US/content/model/NX.GL4AA.003",
        "play_support": "Stable",
        "summary": "13.3'' Touchscreen, 4 GB RAM, 64 GB,  MediaTek CPU",
        "display": "13.3\"\nFull HD (1920 x 1080) resolution\nmulti-touch\nIPS technology",
        "display_angle": 360,
        "stylus": "NO",
        "ram": "LPDDR3\n4 GB (standard)",
        "cpu": "MediaTek M8173C\n2.1 GHz; Quad-core",
        "graphic": "Imagination Technologies PowerVR GX6250\nLPDDR3 Shared graphics memory",
        "storage": "64 GB flash drive",
        "power_supply": "USB-C",
        "interface": "1x USB 3.0\nHDMI Output\n1x USB 3.1 Type-C",
        "battery": "3-cell 4670 mAh Li-Polymer",
        "dimensions": "325 x 228 x 15.5",
        "weight": "1.5kg",
        "pros": "Great machine for everyday work",
        "cons": "Because the machine is very light and thin, the chassis is somehow fragile, but hasn't been an issue for me so far. ",
        "special/Comments": "Has been tested for a few months. I made it my work computer. The Keyboard and trackpad are sometimes a bit flaky, but in general not too bad. Space bar is a bit too hard. That is a good machine for everyday work, and would work even better with 8GB RAM. The 4GB is also great. Monitor can flip all to 360 degrees and the touchscreen is great. "
    },
    {
        "mfg": "Acer",
        "model": "Chromebook Spin 11",
        "serie": "R751T",
        "cover_image": "https://static.acer.com/up/Resource/Acer/Laptops/Chromebook_Spin_11/Image/20170502/Chromebook-Spin-11_black_main.png",
        "desc_link": "https://www.acer.com/ac/en/US/content/series/acerchromebookspin11",
        "specs_link": "https://www.acer.com/ac/en/US/content/model/NX.GNJAA.002",
        "play_support": "Stable",
        "summary": "11.6'' Touchscreen & Wacom Pen, 4 GB RAM, 32 GB, Intel CPU",
        "display": "11.6\"\nHD (1366 x 768) resolution\n10-point multi-touch\nIPS technology",
        "display_angle": 360,
        "display_touch": "10-point multi-touch",
        "stylus": "Wacom® EMR Pen",
        "ram": "LPDDR4\n4 GB (standard)",
        "cpu": "Intel® Celeron®## N3350\n1.1 GHz; Dual-core",
        "graphic": "Intel® HD Graphics 500\nLPDDR4 Shared graphics memory",
        "storage": "32 GB flash drive",
        "power_supply": "USB-C",
        "interface": "2x USB 3.0\n802.11ac wireless LAN\nBluetooth 4.2\n1280 x 720 webcam\nTwo speakers\nmicroSD",
        "battery": "2-cell 4870 mAh Li-ion",
        "dimensions": "295 x 205 x 22\n",
        "weight": "???",
        "pros": "Good keyboard, bright and precise screen even at higher resolution. Stylus is a nice addition. The only device that has a front-facing keyboard camera.",
        "cons": "Trackpad is good, but a little harder to press than the Acer R13",
        "special/Comments": "New Generation for Education. Made for education, anti-bacterial screen, keyboard camera"
    },
    {
        "mfg": "Asus",
        "model": "Chromebook Flip C302",
        "serie": "CA-GU006",
        "cover_image": "https://dlcdnimgs.asus.com/websites/global/products/AH3CbipXdN2BuMww/images/img-fingertips.png",
        "desc_link": "https://www.asus.com/2-in-1-PCs/ASUS-Chromebook-Flip-C302CA/",
        "play_support": "Beta Channel",
        "summary": "12.5'' Touchscreen, 4/8 GB RAM, 32/128 GB, Intel CPU",
        "display": "12.5\" (16:9) LED backlit FHD (1920x1080) 60Hz Glare Panel with 45% NTSC",
        "display_angle": 360,
        "display_touch": "10 points multitouch",
        "stylus": "No",
        "ram": "4 GB Onboard Memory\n8 GB Onboard Memory",
        "cpu": "Intel® Core™ M 6Y30 Processor, \nIntel® Core™ M 6Y75 Processor, \nIntel® Pentium® 4405Y Processor,",
        "graphic": "--",
        "storage": "eMMC:\n32GB / 64GB / 128GBEMMC",
        "power_supply": "USB-C",
        "interface": "2 x Type C USB3.0 (USB3.1 GEN1) support display & support power delivery \n1 x micro SD card\n1 x audio jack COMBO",
        "battery": "2 Cells 39 Whrs Battery",
        "dimensions": "304 x 210 x 13.7",
        "weight": "1.2 kg with Battery",
        "special/Comments": "Tested for a few weeks in 2016, but the touchscreen failed. Would need to research whether some schools are using it in Switzerland. "
    },
    {
        "mfg": "Asus",
        "model": "Chromebook Flip C213",
        "serie": "C213",
        "cover_image": "https://dlcdnimgs.asus.com/websites/global/products/kVhgD2TkSDyYk9sX/images/large/1x/toughness.jpg",
        "desc_link": "https://www.asus.com/Commercial-Laptops/ASUS-Chromebook-Flip-C213NA/Features/",
        "play_support": "Stable",
        "summary": "11.6'' Touchscreen & Stylus, 4 GB RAM, 32 GB,  Intel CPU",
        "display": "11.6\" (16:9) LED backlit HD+ (1366x768) 60Hz Anti-Glare Touchscreen with 50% NTSC with 178˚ wide-viewing angle display\n11.6\" (16:9) LED backlit HD+ (1366x768) 60Hz Glare Touchscreen with 45% NTSC with 178˚ wide-viewing angle display",
        "display_angle": 360,
        "display_touch": "Touchscreen",
        "stylus": "Yes",
        "ram": "4 GB Onboard Memory",
        "cpu": "Intel® Celeron® Dual-Core N3350 Processor, 1 GHz (2 M Cache, up to 2.4 GHz)",
        "graphic": "Integrated Intel HD Graphics",
        "storage": "eMMC:\n32GBEMMC",
        "power_supply": "USB-C",
        "interface": "1 x COMBO audio jack \n2 x Type A USB3.0 (USB3.1 GEN1) \n2 x Type C USB3.0 (USB3.1 GEN1) support display & support power delivery\n1 x SD card reader\n1 x Volume up/down",
        "battery": "4 Cells 46 Whrs Polymer Battery",
        "dimensions": "307 x 199 x 20.65\n307 x 199 x 20.9\n*2",
        "weight": "1.25 kg with Battery",
        "notes": "*1: use for Tablet Mode\n*2: with Stylus supported model",
        "special/Comments": "New Generation for Education. Announced on blog.google. Made for Education, anti-scratch, anti-spill. Not tested, would also need more research for implementation in Switzerland."
    },
    {
        "mfg": "HP",
        "model": "Chromebook x360 11 G1 Edu",
        "cover_image": "http://product-images.www8-hp.com/digmedialib/prodimg/lowres/c05434090.png",
        "desc_link": "http://www8.hp.com/us/en/products/laptops/product-detail.html?oid=17296681",
        "specs_link": "http://www8.hp.com/us/en/products/laptops/product-detail.html?oid=15747870#!tab=specs",
        "play_support": "Beta Channel",
        "summary": "11.6'' Touchscreen & HP Stylus, 4/8 GB RAM, 32/64 GB,  Intel CPU",
        "display": "11.6\" diagonal HD UWVA touch screen with Corning® Gorilla® Glass 3 (1366 x 768)",
        "display_angle": 360,
        "display_touch": "touch screen with Corning® Gorilla® Glass 3",
        "stylus": "HP EMR Pen",
        "ram": "4 GB LPDDR4-2400 SDRAM (max 8GB)",
        "cpu": "Intel® Celeron® N3350 with Intel HD Graphics 500 (1.1 GHz, up to 2.4 GHz, 2 MB cache, 2 cores)",
        "graphic": "Intel® HD Graphics 500",
        "storage": "32 GB eMMC 5.0 (max 64GB)",
        "power_supply": "USB-C",
        "interface": "2 USB 3.1 Type-CTM\n2 USB 3.1 Gen 1 (Sleep and Charge support)\n1 headphone/microphone combo jack",
        "battery": "2-cell, 47.36 Wh Li-ion",
        "dimensions": "306 x 208 x 19.5",
        "weight": "1.4 kg",
        "pros": "Education Edition, Rugged. minor spills resistant",
        "special/Comments": "New Generation for Education. Tested - 1 week... rugged and good for school.  Has stylus and touch"
    },
    {
        "mfg": "Lenovo",
        "model": "ThinkPad Yoga 11e Chrome",
        "cover_image": "http://www3.lenovo.com/medias/lenovo-laptop-thinkpad-yoga-11e-4th-gen-hero.png?context=bWFzdGVyfGltYWdlc3wxMDA4MzJ8aW1hZ2UvcG5nfGltYWdlcy9oNmQvaDNkLzk0MTczMDgxNDM2NDYucG5nfDA0YTUxOWExYzJiMzYyYTJjMzg0ZDI0MjcwZmMyZTA5YjAwNDJkYmIyOTYzZTFiMzA3NTY0NWE4M2ZkYzEyOTA",
        "desc_link": "http://www3.lenovo.com/us/en/laptops/thinkpad/11e-series/11e-yoga-chrome/",
        "specs_link": "http://www3.lenovo.com/us/en/laptops/thinkpad/11e-and-chromebooks/Yoga-11e-4th-Gen/p/22TP2TX153E20HU",
        "play_support": "Stable",
        "summary": "11.6'' Touchscreen & Stylus, 4/8 GB RAM, 32-256 GB,  Intel CPU",
        "display": "11.6\" HD (1366 x 768) IPS Touch",
        "display_angle": 360,
        "display_touch": "IPS Touch",
        "stylus": "Yes",
        "cpu": "Up to Intel® Celeron® N3450 Processor (2MB Cache, Up To 2.20GHz)",
        "graphic": "Intel HD Graphics 500",
        "power_supply": "USB-C",
        "interface": "2 x USB 3.0\nHDMI\n4-in-1 card reader\nAudio jack\nRJ45",
        "battery": "42 Whr 3 Cell",
        "dimensions": "300 x 210 x 22.3",
        "weight": "1.6 kg",
        "pros": "Made for Education, rugged and strong",
        "cons": "Bulky like all Lenovo devices. Even though the screen has a 1366x768 resolution, the screen is much better than the thinkpad. The keyboard is not great, some keys feel very cheap.",
        "special/Comments": "New Generation for Education. Reinforced ports and hinges\nRubberized bumpers\nDrop-resistant up to 90 cm"
    },
    {
        "mfg": "Lenovo",
        "model": "Lenovo ThinkPad 13 Chrome",
        "serie": "20GMS00V00",
        "cover_image": "http://www3.lenovo.com/medias/13-chromebook-hero.png?context=bWFzdGVyfHJvb3R8NjQ5NjB8aW1hZ2UvcG5nfGhjYi9oYzIvOTI0MzU1ODkwMzgzOC5wbmd8ZTIyNmE1YTZmYTM5NTdkMTdiZDgyNGQyZWM3MmEzY2FlOWYwNmQyN2VjMmVjNDIyNGM2MGE5ZGU4YjI3Y2Y1Nw",
        "desc_link": "http://www3.lenovo.com/us/en/laptops/thinkpad/thinkpad-13-series/TP-13-Chrome-/p/22TP2TX132E20GL",
        "specs_link": "http://www3.lenovo.com/us/en/laptops/thinkpad/thinkpad-13-series/TP-13-Chrome-/p/22TP2TX132E20GL",
        "summary": "13.3'' non-touch, 4 GB RAM, 16 GB,  Intel CPU",
        "display": "13.3\"/33.7cm FULL-HD 1920x1080 Anti-Glare",
        "display_angle": 180,
        "display_touch": "NO",
        "stylus": "NO",
        "ram": "4GB LPDDR3 1866 MHz",
        "cpu": "Intel® Celeron® 3855U Processor (2MB Cache, 1.6GHz)",
        "graphic": "1.6 GHz Intel HD Graphics 510",
        "storage": "16GB EMMC",
        "power_supply": "Proprietary Lenovo (!)",
        "interface": "2 x USB 3.0\n2 x USB Type-C\n3.5 mm Headphone / Microphone",
        "battery": "3 Cells Li-Ion Battery 42.0 Wh",
        "dimensions": "322 x 223 x 19.8",
        "weight": "1.4 kg",
        "pros": "Tested in May 2017. 180 hinge.Seems strong and well build. The touchpad is better and more precise than the one of the Acer ",
        "cons": "Bulky like all Lenovo devices. The keyboard is a bit bulky with long course."
    }
]